{
  "VerticalLayout": {
    "width": {
      "width": 100,
      "unit": "%"
    },
    "components": [
      {
        "HorizontalLayout" : {
          "id" : "menuBar",
          "styleName" : "home-menubar",
          "spacing" : true,
          "width" : {
            "width" : 100,
            "unit" : "%"
          },
          "height" : {
            "height" : 50,
            "unit" : "px"
          },
          "components" : [
            {
              "HorizontalLayout" : {
                "id" : "menubarLeft",
                "components" : [
                  {
                    "TextField" : {
                      "id" : "tfBuscador"
                    }
                  }
                ]
              }
            },
            {
              "HorizontalLayout" : {
                "id" : "menubarCenter",
                "height" : {
                  "height" : 50,
                  "unit" : "px"
                },
                "components" : [
                  {
                    "HorizontalLayout" : {
                      "id" : "hlLogo",
                      "styleName" : "home-logo",
                      "width" : {
                        "width" : 65,
                        "unit" : "px"
                      },
                      "height" : {
                        "height" : 65,
                        "unit" : "px"
                      }
                    }
                  }
                ]
              }
            },
            {
              "HorizontalLayout" : {
                "id" : "menubarRight",
                "components" : [
                  {
                    "Button" : {
                      "id" : "btnLogout",
                      "caption" : "Salir"
                    }
                  }
                ]
              }
            }
          ],
          "alignments" : [
            {
              "componentId" : "menubarLeft",
              "alignment" : "MIDDLE_LEFT"
            },
            {
              "componentId" : "menubarCenter",
              "alignment" : "MIDDLE_CENTER"
            },
            {
              "componentId" : "menubarRight",
              "alignment" : "MIDDLE_RIGHT"
            }
          ]
        }
      },
      {
        "HorizontalLayout" : {
          "width" : {
            "width" : 100,
            "unit" : "%"
          },
          "height" : {
            "height" : 100,
            "unit" : "%"
          },
          "components" : [
            {
              "VerticalLayout" : {
                "id" : "menuLateral",
                "styleName" : "menu-lateral",
                "width" : {
                  "width" : 350,
                  "unit" : "px"
                },
                "height": {
                  "height": 100,
                  "unit": "%"
                },
                "components" : [
                  {
                    "VerticalLayout" : {
                      "id" : "hlPerfil",
                      "width" : {
                        "width" : 100,
                        "unit" : "%"
                      },
                      "height" : {
                        "height" : 200,
                        "unit" : "px"
                      },
                      "components" : [
                        {
                          "VerticalLayout" : {
                            "id" : "containerProfile",
                            "components" : [
                              {
                                "HorizontalLayout" : {
                                  "id" : "hlProfileImage",
                                  "styleName" : "profile-image",
                                  "width" : {
                                    "width" : 100,
                                    "unit" : "px"
                                  },
                                  "height" : {
                                    "height" : 100,
                                    "unit" : "px"
                                  }
                                }
                              },
                              {
                                "Button" : {
                                  "id" : "btnUser",
                                  "caption" : "@juan"
                                }
                              }
                            ],
                            "alignments" : [
                              {
                                "componentId" : "hlProfileImage",
                                "alignment" : "MIDDLE_CENTER"
                              },
                              {
                                "componentId" : "btnUser",
                                "alignment" : "MIDDLE_CENTER"
                              }
                            ]
                          }
                        }
                      ],
                      "alignments" : [
                        {
                          "componentId" : "containerProfile",
                          "alignment" : "MIDDLE_CENTER"
                        }
                      ]
                    }
                  },
                  {
                    "Button" : {
                      "id" : "btnTvShows",
                      "caption" : "TV Shows"
                    }
                  },
                  {
                    "Button" : {
                      "id" : "btnPeliculas",
                      "caption" : "Peliculas"
                    }
                  },
                  {
                    "Button" : {
                      "id" : "btnCalendario",
                      "caption" : "Calendario"
                    }
                  },
                  {
                    "Button" : {
                      "id" : "btnTendencias",
                      "caption" : "Tendencias"
                    }
                  }
                ]
              }
            },
            {
              "VerticalLayout" : {
                "id" : "homeContainer",
                "styleName" : "home-container",
                "width" : {
                  "width" : 100,
                  "unit" : "%"
                },
                "height": {
                  "height": 100,
                  "unit": "%"
                },
                "components" : [
                  {
                    "VerticalLayout": {
                      "id" : "gridContent",
                      "width": {
                        "width": 100,
                        "unit": "%"
                      },
                      "height": {
                        "height": 100,
                        "unit": "%"
                      }
                    }
                  }
                ]
              }
            }
          ],
          "expandRatio" : [
            {
              "componentId" : "homeContainer",
              "expandRatio" : 1
            }
          ]
        }
      }
    ]
  }
}
