{
  "VerticalLayout": {
    "width": {
      "width": 100,
      "unit": "%"
    },
    "height": {
      "height": 100,
      "unit": "%"
    },
    "components": [
      {
        "HorizontalLayout": {
          "id": "hlBox",
          "styleName" : "login-box",
          "width" : {
            "width" : 650,
            "unit" : "px"
          },
          "height" : {
            "height" : 260,
            "unit" : "px"
          },
          "components" : [
            {
              "HorizontalLayout" : {
                "id" : "hlContenedor",
                "margin" : true,
                "width" : {
                  "width" : 100,
                  "unit" : "%"
                },
                "height" : {
                  "height" : 100,
                  "unit" : "%"
                },
                "spacing" : true,
                "components": [
                  {
                    "HorizontalLayout" : {
                      "id" : "hlLogo",
                      "styleName" : "image-logo2",
                      "width" : {
                        "width" : 150,
                        "unit" : "px"
                      },
                      "height" : {
                        "height" : 150,
                        "unit" : "px"
                      }
                    }
                  },
                  {
                    "VerticalLayout" : {
                      "id" : "vlInputs",
                      "spacing" : true,
                      "components" : [
                        {
                          "HorizontalLayout" : {
                            "id" : "hlLabel",
                            "styleName" : "label-title"
                          }
                        },
                        {
                          "HorizontalLayout": {
                            "id": "vlTextFields",
                            "spacing" : true,
                            "components": [
                              {
                                "TextField": {
                                  "id": "tfUsuario",
                                  "caption": "Usuario",
                                  "width" : {
                                    "width" : 190,
                                    "unit" : "px"
                                  }
                                }
                              },
                              {
                                "VerticalLayout": {
                                  "id": "tfPassword",
                                  "width" : {
                                    "width" : 190,
                                    "unit" : "px"
                                  }
                                }
                              }
                            ],
                            "alignments": [
                              {
                                "componentId": "tfUsuario",
                                "alignment": "MIDDLE_CENTER"
                              },
                              {
                                "componentId": "tfPassword",
                                "alignment": "MIDDLE_CENTER"
                              }
                            ]
                          }
                        },
                        {
                          "HorizontalLayout": {
                            "id": "hlButtons",
                            "spacing": true,
                            "components": [
                              {
                                "Button": {
                                  "id": "btnAceptar",
                                  "caption": "Aceptar",
                                  "width" : {
                                    "width" : 150,
                                    "unit" : "px"
                                  }
                                }
                              }
                            ]
                          }
                        }
                      ],
                      "alignments": [
                        {
                          "componentId": "hlLogo",
                          "alignment": "MIDDLE_CENTER"
                        },
                        {
                          "componentId": "hlLabel",
                          "alignment": "MIDDLE_CENTER"
                        },
                        {
                          "componentId": "vlTextFields",
                          "alignment": "MIDDLE_CENTER"
                        },
                        {
                          "componentId": "hlButtons",
                          "alignment": "MIDDLE_CENTER"
                        }
                      ]
                    }
                  }
                ],
                "alignments" : [
                  {
                    "componentId" : "hlLogo",
                    "alignment" : "MIDDLE_CENTER"
                  },
                  {
                    "componentId" : "vlInputs",
                    "alignment" : "MIDDLE_CENTER"
                  }
                ],
                "expandRatio" : [
                  {
                    "componentId" : "hlLogo",
                    "expandRatio" : 3
                  },
                  {
                    "componentId" : "vlInputs",
                    "expandRatio" : 7
                  }
                ]
              }
            }
          ],
          "alignments" : [
            {
              "componentId": "hlContenedor",
              "alignment": "MIDDLE_CENTER"
            }
          ]
        }
      }
    ],
    "alignments": [
      {
        "componentId": "hlBox",
        "alignment": "MIDDLE_CENTER"
      }
    ]
  }
}
